// Jest Snapshot v1, https://goo.gl/fbAQLP

exports[`Tree map Serializer should serialize a component tree map 1`] = `
"
  <nav>
    <ul>
      <li>Left</li>
      <li>Right</li>
    </ul>
  </nav>
"
`;

exports[`Tree map Serializer should treeify the state/store 1`] = `
├─ currentUser
│  └─ user
│     └─ isAuthenticated
├─ preferences
│  ├─ current
│  └─ items
├─ kiosk
│  ├─ data
│  ├─ current
│  ├─ categories
│  └─ selectedAdminQuestions
├─ surgeries
│  ├─ data
│  ├─ current
│  │  ├─ surgery
│  │  ├─ isEditing
│  │  └─ isDraft
│  ├─ implants
│  ├─ requisitions
│  │  ├─ data
│  │  └─ notes
│  ├─ systems
│  ├─ preferences
│  ├─ payees
│  └─ isActiveFilter
├─ reports
│  └─ current
│     └─ report
├─ calendar
├─ sorting
├─ errors
├─ filtering
├─ isFetching
├─ referrer
├─ pagination
│  ├─ surgeries
│  │  ├─ isFetching
│  │  ├─ pageCount
│  │  ├─ currentPage
│  │  ├─ resultsPerPage
│  │  ├─ totalRows
│  │  └─ ids
│  ├─ pricing_custom_rules
│  │  ├─ isFetching
│  │  ├─ pageCount
│  │  ├─ currentPage
│  │  ├─ resultsPerPage
│  │  ├─ totalRows
│  │  └─ ids
│  ├─ price_list_items
│  │  ├─ isFetching
│  │  ├─ pageCount
│  │  ├─ currentPage
│  │  ├─ resultsPerPage
│  │  ├─ totalRows
│  │  └─ ids
│  ├─ alerts_mappings
│  │  ├─ isFetching
│  │  ├─ pageCount
│  │  ├─ currentPage
│  │  ├─ resultsPerPage
│  │  ├─ totalRows
│  │  └─ ids
│  ├─ alerts_errors
│  │  ├─ isFetching
│  │  ├─ pageCount
│  │  ├─ currentPage
│  │  ├─ resultsPerPage
│  │  ├─ totalRows
│  │  └─ ids
│  ├─ client_physician_mappings
│  │  ├─ isFetching
│  │  ├─ pageCount
│  │  ├─ currentPage
│  │  ├─ resultsPerPage
│  │  ├─ totalRows
│  │  └─ ids
│  ├─ client_procedure_mappings
│  │  ├─ isFetching
│  │  ├─ pageCount
│  │  ├─ currentPage
│  │  ├─ resultsPerPage
│  │  ├─ totalRows
│  │  └─ ids
│  ├─ siu_messages
│  │  ├─ isFetching
│  │  ├─ pageCount
│  │  ├─ currentPage
│  │  ├─ resultsPerPage
│  │  ├─ totalRows
│  │  └─ ids
│  ├─ users
│  │  ├─ isFetching
│  │  ├─ pageCount
│  │  ├─ currentPage
│  │  ├─ resultsPerPage
│  │  ├─ totalRows
│  │  └─ ids
│  ├─ clients
│  │  ├─ isFetching
│  │  ├─ pageCount
│  │  ├─ currentPage
│  │  ├─ resultsPerPage
│  │  ├─ totalRows
│  │  └─ ids
│  ├─ system_clusters
│  │  ├─ isFetching
│  │  ├─ pageCount
│  │  ├─ currentPage
│  │  ├─ resultsPerPage
│  │  ├─ totalRows
│  │  └─ ids
│  ├─ scanned_items
│  │  ├─ isFetching
│  │  ├─ pageCount
│  │  ├─ currentPage
│  │  ├─ resultsPerPage
│  │  ├─ totalRows
│  │  └─ ids
│  ├─ items
│  │  ├─ isFetching
│  │  ├─ pageCount
│  │  ├─ currentPage
│  │  ├─ resultsPerPage
│  │  ├─ totalRows
│  │  └─ ids
│  ├─ smart_items
│  │  ├─ isFetching
│  │  ├─ pageCount
│  │  ├─ currentPage
│  │  ├─ resultsPerPage
│  │  ├─ totalRows
│  │  └─ ids
│  ├─ smart_items_history
│  │  ├─ isFetching
│  │  ├─ pageCount
│  │  ├─ currentPage
│  │  ├─ resultsPerPage
│  │  ├─ totalRows
│  │  └─ ids
│  └─ survey_categories
│     ├─ isFetching
│     ├─ pageCount
│     ├─ currentPage
│     ├─ resultsPerPage
│     ├─ totalRows
│     └─ ids
├─ enums
├─ enumsFiltered
├─ integrationTestTool
│  ├─ model
│  ├─ resultMessages
│  └─ snapshots
├─ surveyPackages
│  ├─ surveyPackageList
│  ├─ surveyPackageFilterText
│  ├─ currentSurveyPackage
│  ├─ surveyPackageAvailableClients
│  ├─ surveyPackageAvailablePhysicians
│  ├─ masterSurveyList
│  └─ availableTemplates
├─ surgeryMessages
│  └─ data
├─ surgeryOutcomes
│  ├─ data
│  └─ meta
├─ surgeryNotifications
├─ outcomePlayer
│  ├─ currentOutcome
│  └─ playlist
├─ notes
│  └─ outcomes
├─ users
│  ├─ current
│  ├─ physicians
│  └─ nurses
├─ clients
│  └─ current
│     ├─ details
│     ├─ physicianMappings
│     ├─ procedureMappings
│     └─ promptOnUnload
├─ appVersion
│  └─ hash
├─ pricing
│  ├─ rules
│  │  ├─ data
│  │  └─ current
│  ├─ capitations
│  │  ├─ data
│  │  └─ current
│  ├─ customRules
│  │  ├─ current
│  │  └─ priceLists
│  └─ scannedItem
├─ items
│  ├─ merge
│  ├─ systemCluster
│  ├─ manufacturers
│  │  ├─ current
│  │  └─ promptOnUnload
│  ├─ priceLists
│  │  ├─ current
│  │  └─ items
│  └─ item
├─ data
│  ├─ siu_messages
│  ├─ users
│  ├─ clients
│  ├─ reports
│  ├─ move_survey
│  ├─ preferences
│  ├─ system_clusters
│  ├─ manufacturers
│  ├─ scanned_items
│  ├─ items
│  ├─ pricing_custom_rules
│  ├─ kiosk_questions
│  ├─ smart_items
│  ├─ smart_items_history
│  └─ survey_categories
├─ integration
│  └─ alerts
│     ├─ errors
│     └─ mappings
└─ surveys
   └─ categories
      └─ current

`;
